{
  "rules": {
    /*
    "no-unused-variables": true,
    */
    /*
     * Start TypeScript specific enforcement
     */
    "member-ordering": [
      true,
      {
        "order": "fields-first"
      }
    ],
    "no-inferrable-types": [
      true,
      "ignore-params"
    ],
    "no-internal-module": true,
    "no-magic-numbers": [
      true,
      -5,
      -4,
      -3,
      -2,
      -1,
      0,
      1,
      2,
      3,
      4,
      5,
      6,
      7,
      8,
      9,
      10
    ],
    "no-namespace": [
      true,
      "allow-declarations"
    ],
    "no-reference": true,
    "prefer-for-of": true,
    /*
     * Start functionality enforcement
     */
    "curly": true,
    "forin": true,
    "label-position": true,
    "no-arg": true,
    "no-bitwise": true,
    "no-conditional-assignment": true,
    "no-construct": true,
    "no-duplicate-variable": true,
    "no-empty": true,
    "no-eval": true,
    "no-invalid-this": true,
    "no-misused-new": true,
    "no-null-keyword": true,
    "no-shadowed-variable": true,
    "no-string-literal": true,
    "no-switch-case-fall-through": true,
    "no-unused-expression": true,
    "no-use-before-declare": true,
    "no-var-keyword": true,
    "radix": true,
    "switch-default": true,
    "triple-equals": true,
    "typeof-compare": true,
    "use-isnan": true,
    /*
     * Start maintainability enforcement
     */
    "cyclomatic-complexity": [
      true
    ],
    "eofline": true,
    "indent": [
      true,
      "spaces"
    ],
    "linebreak-style": [
      true,
      "LF"
    ],
    "max-line-length": [
      true,
      120
    ],
    "no-default-export": true,
    "no-mergeable-namespace": true,
    "no-trailing-whitespace": false,
    "object-literal-sort-keys": true,
    "prefer-const": true,
    "trailing-comma": [
      true,
      {
        "multiline": "always",
        "singleline": "never"
      }
    ],
    /*
     * Start style enforcement
     */
    "align": [
      true,
      "parameters",
      "arguments",
      "statements"
    ],
    "arrow-return-shorthand": true,
    "class-name": true,
    "comment-format": [
      true
    ],
    "new-parens": true,
    "no-consecutive-blank-lines": [
      true
    ],
    "object-literal-key-quotes": [
      true,
      "as-needed"
    ],
    "one-line": [
      true,
      "check-catch",
      "check-finally",
      "check-else",
      "check-open-brace",
      "check-whitespace"
    ],
    "one-variable-per-declaration": [
      true,
      "ignore-for-loop"
    ],
    "quotemark": [
      true,
      "double",
      "avoid-escape"
    ],
    "semicolon": [
      true,
      "always"
    ],
    "whitespace": [
      true,
      "check-branch",
      "check-decl",
      "check-operator",
      "check-module",
      "check-separator",
      "check-type",
      "check-typecast"
    ],
    /*
     * Start tslint-misc-rules - https://github.com/jwbay/tslint-misc-rules
     */
    "sort-imports": true,
    "prefer-es6-imports": [
      true,
      "module-name"
    ],
    "class-method-newlines": true,
    "jsx-no-closing-bracket-newline": true,
    "jsx-no-braces-for-string-attributes": false,
    "react-lifecycle-order": true,
    "prefer-or-operator-over-ternary": true,
    "camel-case-local-functions": false,
    "declare-class-methods-after-use": true,
    "no-braces-for-single-line-arrow-functions": true,
    "no-unnecessary-parens-for-arrow-function-arguments": true,
    /*
     * Start tslint-microsoft-contrib rules - https://github.com/Microsoft/tslint-microsoft-contrib
     */
    "export-name": true,
    "function-name": true,
    "import-name": true,
    "max-func-body-length": [
      true,
      30,
      {
        "ignore-comments": true
      }
    ],
    "no-constant-condition": true,
    "no-duplicate-case": true,
    "no-empty-interfaces": true,
    "no-function-expression": true,
    "no-single-line-block-comment": true,
    "no-sparse-arrays": true,
    "no-stateless-class": true,
    "no-string-based-set-immediate": true,
    "no-string-based-set-interval": true,
    "no-string-based-set-timeout": true,
    "no-typeof-undefined": true,
    "no-unnecessary-bind": true,
    "no-unnecessary-field-initialization": true,
    "no-unnecessary-local-variable": true,
    "no-unnecessary-override": true,
    "no-unnecessary-semicolons": true,
    "no-unsupported-browser-code": true,
    "no-var-self": true,
    "no-with-statement": true,
    "non-literal-require": true,
    "possible-timing-attack": true,
    "prefer-array-literal": true,
    "prefer-type-cast": true,
    "promise-must-complete": true,
    "react-anchor-blank-noopener": true,
    /* 
      * I'm not sure about this one. I'm going to leave it off for now. I'm not sure the performance
      * tradeoffs are worth it in terms of readablity *for us*
      * See: https://stackoverflow.com/questions/36677733/why-jsx-props-should-not-use-arrow-functions
      */
    "react-this-binding-issue": false,
    "react-tsx-curly-spacing": [
      true,
      "never"
    ],
    "react-unused-props-and-state": true,
    "use-named-parameter": true,
    "valid-typeof": true
  },
  "rulesDirectory": [
    "../node_modules/tslint-misc-rules/rules",
    "../node_modules/tslint-microsoft-contrib"
  ]
}